ENSBTAP00000042087,ENSBTAT00000005121,MAAPWTGALLLLLASQAVSSAQALDEEEVPEGWVLLHVVQGQVGAGNYSYLRLNHEGKIVLRMRSLRGD,23,5,8,
ENSBTAP00000046539,ENSBTAT00000049679,MRLHYLLLLLLLVVLSSGSGFTQGVRSYLSCWGNRGICLLNRCPGRMRQIGTCLAPRVKCCR*,18,7,5,
ENSBTAP00000020817,ENSBTAT00000020817,MRSLSGLLLLLTACLVVNASSVPTLPDDIQVQENFDLSRIYGKWFNVAVGSTCPWLKRFKEKMTMSTVV,19,5,6,
ENSBTAP00000014055,ENSBTAT00000014055,MKGCLLLLLLLLGTVSALYLEKDVPHLGDLETQADLSQDSEGSGGQEGELALSGEVLESGREEAVDTHD,17,8,4,
ENSBTAP00000020219,ENSBTAT00000020219,MSVRGPAFGLLLLLFCPAQVFSQSCIWYGECGIASGDKRYNCRYSGPPEPLPQDGYDLVQELCPGFFFG,22,5,9,
ENSBTAP00000053473,ENSBTAT00000061371,MLRAASRRPEPPAGHVAAGSPLLLLLLLSCCADACGGAPVLPQGLQPEQELQLWKQINDACLSLLSMHP,37,7,21,
ENSBTAP00000006372,ENSBTAT00000006372,MAAAALPTRPRSRPGPRPLPLLLLPLLLLLLLRVGPVRADSKVFGDVDQVRMTSEGSDCRCKCIMRPLS,39,7,25,
ENSBTAP00000044737,ENSBTAT00000047536,MTAPCSRPARLPPRRRPGLVPFPPPLLLLLLLAAAGPAHGWESGDLELFDLVEEVQLNFYQFLGVQQDA,40,7,25,
ENSBTAP00000011795,ENSBTAT00000011795,MRVMGPRTLLLLLSGVLVLTETRAGSHSLRYFYTAVSRPGLGEPRFIIVGYVDDTQFVRFDSDAGDPRV,24,5,8,
ENSBTAP00000022366,ENSBTAT00000022366,MAPAATAAAPRLLRAAMLLLLLVAAGRRAAGAPVVNELRCQCLQTLQGIHLKNIQSVKVTTPGPHCDQT,31,5,17,
ENSBTAP00000004581,ENSBTAT00000004581,MSMKRLSLLLLLQLTCYFSGGSCGKVLVWPVEFSHWLNIKTILEELVTRGHEVTVLISSASTIPNSSKP,24,5,7,
ENSBTAP00000053606,ENSBTAT00000061370,MAWRGAGPRVLGGPGGVGLSPRLLLLLLLLVEPVRGFGDEEERRCDPIRISMCQNLGYNVTKMPNLVGH,36,8,22,
ENSBTAP00000031847,ENSBTAT00000031901,MGDLWLLLLLPLSLAAFHGVKGCLECDPKFIEEVKSLLGKLVPPEVPGRTHMLERQMKEMIRLSFKVSH,15,5,5,
ENSBTAP00000048478,ENSBTAT00000055018,VPNPCPLLFPFHRHLPLHSSTFSWRNVALLLLLSLSLEQTSASPSYRVKMKPGKCPQERITCSSKAPDL,42,5,28,
ENSBTAP00000056508,ENSBTAT00000065827,MLSKLLLLLCFRLCVGQADRGRAEVLPKPSLRAWPSSVVPDGSSVTLRCGTPTRDVSFALRKGARVWEM,18,5,4,
ENSBTAP00000010926,ENSBTAT00000010926,MLGGPGPGLLLLLAVLSLGTAVPSAGASKSRRQAQQIVQPQSPLTVSQSKPGCYDNGKHYQINQQWERT,27,5,8,
ENSBTAP00000016883,ENSBTAT00000016883,MRGQWSLLLGPARLCLRLLLLLGYRRRCPPLLRGLVQRWRYGKVCLRSLLYNSFGGSDTAVDAAFEPIY,23,5,17,
ENSBTAP00000045189,ENSBTAT00000048089,MASSQPPLPPPPPPLLLLALLLLLKVSDTSSSVSTATSTASETDNLTSKPLTSSFSSSSPTVWEKQTSQ,31,5,19,
ENSBTAP00000049761,ENSBTAT00000057149,MHLAGFLLLLLAGRLVLSQGQLHPKHYGQGHAHLPRQAPGTGEGFSSLKINPGNTTFALHFHHLLASQA,18,5,6,
ENSBTAP00000021026,ENSBTAT00000021026,MAPAPSFRGHQWTYNPVRGSCLLLLLLMSNLLLCQGKSCPSCGPDVFVSLRKSFTDRFMNAASLSHDFY,36,6,21,
ENSBTAP00000027703,ENSBTAT00000027703,MMTLLLLLLFLCETQSWAASKPNFVLLMADDLGIGDPGCYGNKTLRTPNIDRLARGGVKLTQHLAASPL,18,6,3,
ENSBTAP00000029956,ENSBTAT00000029968,MNMMAVKRLLLLLLLQLTCYFSSGSCGKVLVWPVEYSHWMNMKIILDELVMRGHEVTVLTSSASILIDP,24,7,8,
ENSBTAP00000010922,ENSBTAT00000010922,MLGGPGPGLLLLLAVLSLGTAVPSAGASKSRRQAQQIVQPQSPLTVSQSKPGCYDNGKHYQINQQWERT,27,5,8,
ENSBTAP00000007481,ENSBTAT00000007481,MFGSSGPQAQRGPCPFALLLLLLLGPSSVLAISFHLPVNSRKCLREEIHKDLLVTGAYEITDQSGGAGG,31,7,17,
ENSBTAP00000014829,ENSBTAT00000014829,MTAQVFPLLLLLLLLAGLPTTRPTPPTCYSRMLALSREITSDFQSLQATEPSEACVRYLPRLYLDIHNY,23,8,7,
ENSBTAP00000027593,ENSBTAT00000027593,MGTRALRRPYFFPLLLLLLLCGESPPVGGCNEKRMLAMLPRCGKTFAEKMKKVEVWKWCNLSEFIVYYE,29,7,13,
ENSBTAP00000039232,ENSBTAT00000039438,MRPGGALFALLASLLLLLLLRLLWCWTDAPARSRFLVEESREATHSSPAAPRKLRSSATLPPRTGNSTY,25,7,13,
ENSBTAP00000008253,ENSBTAT00000008253,MSSLRRLLLLLLLVFPATLLLRVGPGGSLAVAQDLTEDEETVEDSIIEDEDDEAEVEEDEPTDLAEDKE,20,7,6,
ENSBTAP00000022647,ENSBTAT00000022647,MQATGTPGVTARTRPAGNPTKSPPTPPTPSGLVLLLLLSLVSRVRAQPPDPGRALLSPDLAGVAGVPAE,46,5,33,
ENSBTAP00000002658,ENSBTAT00000002658,MRLLLLLAPLGWLLLAETKGDAKPEGEGSGLGAVCREVLGFRARHFLSCAQCYFVEYPAQALHWSLESE,22,5,2,
ENSBTAP00000008880,ENSBTAT00000008880,MPGPRGAAGGLAPEMRGAGAAGLLALLLLLLLGPGGGAEGGPAGERGAGGGGALARERFKVVFAPVICK,37,7,25,
ENSBTAP00000054316,ENSBTAT00000065686,MGKLRPEKEEHLAPCHTRRPRSLWNLLLLLWTFLNCGLGGNAQGPGEWTPWGSWSRCSSSCGRGLSVRS,39,5,25,
ENSBTAP00000055330,ENSBTAT00000065845,KLALLLLLLPLLLGCCAARPAPPRAPRHSDGTFTSELSRLRDSARLQRLLQGLVGKRSEQDTENSTAWT,18,6,3,
ENSBTAP00000001068,ENSBTAT00000001068,MGGVVPRSVSALPLLLLLLLQAERPRGAELTFELPDNAKQCFHEEVEQGVKFSLDYQVITGGHYDVDCF,27,7,13,
ENSBTAP00000035185,ENSBTAT00000035307,APPRPAMPPGPAAALGTALLLLLSALSPLLPPAREAVMLRAREAAQFLRPRQRRAYQVFEEAKQGHLER,35,5,18,
ENSBTAP00000020194,ENSBTAT00000020194,MAGTPGHPIFLLLLLRAIGQVSPYSTHWKPTWPAYRLPVVLPQSTFNLAKPDFGAEAKLEVSSSCGPQC,23,5,10,
ENSBTAP00000039327,ENSBTAT00000039536,MAPAASSAPRLLRAAMLLLLLVAAGRRAAGAPVVNELRCQCLQTLQGIHLKNIQSVKVTTPGPHCDQTE,30,5,16,
ENSBTAP00000020787,ENSBTAT00000020787,MSAPRLLTMQLLLLLGAWWARAAAPRCTYTFVLPPQKFTGAVCWSGPAAARPTPEAVNASEVAALRVRV,22,5,10,
ENSBTAP00000055353,ENSBTAT00000063400,MFSLKMLPLLLLLHVQLSRAFPVSFASLEEKNRNIVQNYLEKFYQLPRFKYKSERKSKTNVIVETLKRM,20,5,8,
ENSBTAP00000018261,ENSBTAT00000018261,MGSRTPGSPLHAVQLRRGARRRPRLLPLLPPLLLLLLPPPPRVGGFNLDAEAPAVLSGPPGSFFGFSVE,45,6,31,
ENSBTAP00000025815,ENSBTAT00000025815,MEGAGPRGAGPARRRGAGGPSLLLLLLWLLPGPTAPQELSPRGRNVCRAPGSQELTCCAGWRQQGDECG,36,6,21,
ENSBTAP00000026334,ENSBTAT00000026334,MLLRLLLLLAPCGAGFATKVVSISLRGNWKIHSGNGSLQLPAAVPGCVHSALFNKRIIKDPYYRFNNLD,17,5,4,
ENSBTAP00000002011,ENSBTAT00000002011,MPWPLLPLLLLLLLAASGAQTTRPCFPGCQCEVETFGLFDSFSLTRVGCSGLGPHIVPVPIPLDTAHLD,21,7,7,
ENSBTAP00000046927,ENSBTAT00000050183,MLVPAPFLLVLLLLLGAPQVGLSQRSPKAGSSPSCLHTALREAEKSQRKDTSLLIKRTFPALPRGDPED,23,5,10,
ENSBTAP00000026127,ENSBTAT00000026127,MALQRTQAFLLLLLLTLLGLGLVQPSYGQDRMYQRFLRQHVDPDETGGNDSYCNLMMQRRKMTSHQCKR,28,6,9,
ENSBTAP00000001517,ENSBTAT00000001517,MRPPWCPLHTPSLTPPLLLLLFLLGGGAEAEGPEDPELLVMVRGGRLRGLRLMAPRGPVSAFLGIPFAE,30,5,16,
ENSBTAP00000054698,ENSBTAT00000064402,MGTRPPKALLLLLLLRLLPPRGASAGSLQSPGLSECFQVNGADYRGHQNRTGPRGAGRPCLYWDQTQQH,25,7,8,
ENSBTAP00000021747,ENSBTAT00000021747,MAVPALSCCLSLLVLLLLLAIPQTSTAVNDASNITCFYNSRANVSCIWSHDEGLRATTCCLHSRQPQRK,27,5,14,
ENSBTAP00000001958,ENSBTAT00000001958,VPNPCPLLFPFHRHLPLHSSTFSWRNVALLLLLSLSLEQTSASPSYRVKMKPGKCPQERITCSSKAPDL,42,5,28,
ENSBTAP00000022855,ENSBTAT00000022855,MELGGPGTSPLPPLLLLLLGAGLLPVSSHAETRAHAEERLLKKLFSGYNKWSRPVANISDAVLVHFGLS,30,6,13,
ENSBTAP00000008130,ENSBTAT00000008130,MEALLVLPLLLLLSAGPCAPQLLGIRGDALEKSCLQLPLDCDDIYAQGYQADGVYLIYPSGPSVPVPVF,20,5,8,
ENSBTAP00000044690,ENSBTAT00000047485,MDKLLLLLLLLGIFPFVFFQAPDTLCMVCKNFKKGQCLQGKGNCTMEQGPGCRTRDFFLFSEKGRWNFN,19,8,3,
ENSBTAP00000045060,ENSBTAT00000047906,MGRCSLLLLLLLIAFLTPGAANPVSPSLRAPSSLPWSTSFRSRPTITLKYSIRYIQQKVDHFGFNIDRT,21,7,5,
ENSBTAP00000011269,ENSBTAT00000011269,MGRQRRCRWAQPWTLLLLLLGPRLLVTHGWRRKGDKNSENTNILELYLPAVVEYALHVYNLRSQDMNAY,29,6,14,
ENSBTAP00000016841,ENSBTAT00000016841,MAAAPRACKGHGRPLPVLLLLLLLALPPLGGPPGAAAYFPEERWSPESPLQAPRVLIALLARNAAHALP,30,7,17,
ENSBTAP00000007060,ENSBTAT00000007060,LPGAVSLLLLLLLAVHSPPSRGLKYGIHAVDLKSIETVLESRFFSRISSWRNSTVGGHPWQVSLKLGGH,22,7,6,
ENSBTAP00000007452,ENSBTAT00000007452,AALSPALLLLLLLLLLPPPPPPLLGALWAAGTPAPSVQDGAPGAGRVKRGWVWNQFFVVEEYTGTEPLY,25,10,6,
ENSBTAP00000005195,ENSBTAT00000005195,MAVALGPSGWWQRWRRRLSAREVSRMLLLLLLLGSGQGPRQVGAGQTFEYLKREHSLSKPYQGVGTSSS,44,7,26,
ENSBTAP00000022664,ENSBTAT00000022664,MSMQRLSLLLLLQLTCYFNSGSCGKVLVWPMEYSHWMNMKTILDELVTRGHEVTVLIPSVTTFIDPKKP,23,5,7,
ENSBTAP00000033613,ENSBTAT00000033703,MAIRARSWRPPPPPLLLLLLWVTGQAAPVAGLGLGSDSELQIERRFVPEECPRTVRSGDFVRYHYVGTF,26,6,14,
ENSBTAP00000015174,ENSBTAT00000015174,MAPLCPSPRLPLWIPAPAPGPAVQLLLLLLLLVPAHPQKLLWMQGAPTTGGDSSGEDDPLGEEDLPSEE,37,8,24,
ENSBTAP00000052109,ENSBTAT00000053405,MWGFRLLRSPPLLLLLPQLGIGIAASSSHAGTMNLGSNSSGGAPCSPSAERRRQQCVQLSTVPGADPQR,26,5,11,
ENSBTAP00000014364,ENSBTAT00000014364,MQLLLLLMAFLLPPGLGEPFLSEEIIGGHEAKPHSRPYMAFVQFLGEKSWKRCGGVLIQKDFVLTAAHC,17,5,2,
ENSBTAP00000006847,ENSBTAT00000006847,MEAPAARLLPPLLLLLSACAPAPGRASSDAPPLVNEDVKRTVDLSSHLAKVTAEVVLAHAGSGSSPRAA,26,5,11,
ENSBTAP00000054935,ENSBTAT00000065907,FPLNPRALAPAMPPPLLLLLLLLLDAGGGRGGARAQEPGSAAADGPPAAGGGGGQDPHAKHLYTADMFA,35,9,15,
ENSBTAP00000020170,ENSBTAT00000020170,LGLXRRLAFSLLLLLLLWGLGQSPWAAAAAPALRWLLGDPACGLLLGLAVLAGPWLGPWTPHWLSLAAA,28,7,10,
ENSBTAP00000025189,ENSBTAT00000025189,MGGAGILLLLLLAGLGVGEAWRPPKGKCPLSCSCSKDSALCEGSVDLPEILSPTLLSLSFVRTRITQLK,20,6,6,
ENSBTAP00000046844,ENSBTAT00000050083,MQPPSLLLPLLLLLCQPVVRTRGLQCGSFPEPCANGGTCLSLSQGQGTCQCAPGFLGETCQFPDPCQDA,21,5,9,
ENSBTAP00000037502,ENSBTAT00000037678,MEAAAGRSSHLGPAPAGRPPRCPLLLQLQLLLLLLLLPPGWVPGAAGTQGAEFPELCSYTWEAVDTKNN,47,8,29,
ENSBTAP00000041785,ENSBTAT00000027911,MARPDPSAPPSLLLLLLAQLAGRAAAASKAPACQEITVPMCRGIGYNLTHMPNQFNHDTQDEAGLEVHQ,26,6,11,
ENSBTAP00000010787,ENSBTAT00000010787,MLLLLLLLPMCWAVEVRRPRGVSLTNHHFYDESKPFTCLDGSASIPFDQVNDDYCDCKDGSDEPGTAAC,13,7,1,
ENSBTAP00000000081,ENSBTAT00000000081,MASRRVLSGLRAVRQPPPPLLLLLLLLGPWAAAGHAGKYSREKNEPAPPSKREPAAEFRMEKLNQLWEK,36,8,19,
ENSBTAP00000025945,ENSBTAT00000025945,MRAAGPSARPALALLLLLAGAGVLAAAAAPLAPPLFNVSLDAAPQLRWLPVLQHYDRDFLHSAMAHIIG,25,5,13,
ENSBTAP00000027417,ENSBTAT00000027417,MRQVLAAVLLLLLLRSVSGTRGGEALNACGRPRMLNRMVGGQNALEGEWPWQVSIQRNGSHFCGGSLIT,19,6,8,
ENSBTAP00000009326,ENSBTAT00000009326,MAPAPSFHGHQWTYNLVRGSCLLLLLVMSNLLLCQGILCPSLCPDGDDVCRASLIDLFVHASVLSTGMY,36,5,21,
ENSBTAP00000000973,ENSBTAT00000000973,MWALRGCRSGSRWGQGAALLLLLLGVPPRGLALPPLRYSHAGICPNDMNPNLWVDAQSTCKRECETDQE,32,6,18,
ENSBTAP00000054091,ENSBTAT00000063901,MASSQPPLPPPPPPLLLLALLLLLKVSDTSSSVSTATSTASETDNLTSKPLTSSFSSSSPTVWEKQTSQ,31,5,19,
ENSBTAP00000008354,ENSBTAT00000008354,MERRWPLGLGLLLLLLLCAPLPPGARAEEVTLMDTSMAQEELGWLLDPPEDGWSEVQQILNGTPLYMYQ,27,7,10,
ENSBTAP00000030566,ENSBTAT00000030589,PRLSPRAPLLLLLILLLLLLGGAPQAGGGPQPPFRTFTASDWALTHLVVHEQTGEVYVGAVNRIYKLSG,28,5,8,6,14,
ENSBTAP00000018241,ENSBTAT00000018241,MRAAGAPLARTSRLLLLLLLKVSASPALGSALAPRKENCLGERCSPTLIQRRSRDAWGPGDSAGDLLPT,24,7,13,
ENSBTAP00000017420,ENSBTAT00000017420,MFSFVDLRLLLLLAATALLTHGQEEGQEEGQEEDIPPVTCVQNGLRYHDRDVWKPVPCQICVCDNGNVL,22,5,8,
ENSBTAP00000000073,ENSBTAT00000000073,MWWALLLLLPFAIAPRPSQAGPLQNSLVFRLTQQGPWGSGAGNSTVSPCEWLPVAGVTTLTFVNRGLER,20,5,4,
ENSBTAP00000027343,ENSBTAT00000027343,MGLDRGQSPLLMALLLLLACLQMGMSLERISYVPQLSSATLAGRLTQSTFTLEQPRGQFSHPSISDSDA,26,5,13,
ENSBTAP00000029826,ENSBTAT00000029830,MISCNFEKFKTMKHLLLLLFCAFIVQAQFPTDYDEGQDDRPKVGLGARGHRPYDKKKEEAPSLRPVPPP,27,5,14,
ENSBTAP00000032900,ENSBTAT00000032973,MHRRSRGVNIGLLLLLSQIFQVGINNVPPVTLATLALNIWFFLNPLKPLLSSCLSVEKCYYQKDWQRLL,21,5,11,
ENSBTAP00000016618,ENSBTAT00000016618,MDCRARGRRCPESALLILEPAPMGPLRHSPGPGERRLLLPTLLLALLLLLAPSPGHATRVVYKVAEEQP,57,5,45,
ENSBTAP00000055162,ENSBTAT00000064119,MESPRLRLLPLLGAALLLLLPLLGALAQEDAELQPRALDIYSAVEDASHEKELIEALQEVLKKLKSKRI,27,5,15,
ENSBTAP00000029257,ENSBTAT00000029257,MRGDQAAGWPAPPPLLLMLLLLLSRAAALHPSELFPYGQSRGDQLLQEGDDESSAAVKLTLSLRFYDAQ,28,5,18,
ENSBTAP00000024347,ENSBTAT00000024347,ATMPLPLACLLLLLLSTHSALALKICSFNVRSFGESKKANCNAMDVIVKVIKRCDIILLMEIKDSSNRI,22,6,9,
ENSBTAP00000026715,ENSBTAT00000026715,MLGARAVEGAAVALLRLLLLLLPALGVVRLAGAGLPESVIWAVNAGGEAHVDVHGIHFRKDPLEGRVGR,33,6,16,
ENSBTAP00000029092,ENSBTAT00000029092,MGDPGQSPSPWSPHGSPPTLSILTLLLLLCGHAYSQCKILRCNAEYVSSTLSLRGGGSPGSLRGGGRGG,35,5,24,
ENSBTAP00000017511,ENSBTAT00000017511,RAMRPGSRRARGSPTWGLLLLLGLPWPVWGTKEFQGNSLGKPVILHWSLDGRPQRMVTLEEPVPKLQVR,30,5,17,
ENSBTAP00000005604,ENSBTAT00000005604,MGSPALRPALLLLLPLLLRVPPSRGFPGSGDSPLEDDEVVYSDAKYKDIPWCSPIKVKYGDVYCRAPQG,25,5,9,
ENSBTAP00000055252,ENSBTAT00000065665,LRLMAPAATAAAPRLLRAAMLLLLLVAAGRRAAGAPVVNELRCQCLQTLQGIHLKNIQSVKVTTPGPHC,34,5,20,
ENSBTAP00000026411,ENSBTAT00000026411,MCDGALLPPLALPLLLLLLWGLDPGTGSAPLPPPLSPRLPRPPSACPPRRRRRRPRAPPAAPRARLGER,27,6,13,
ENSBTAP00000028974,ENSBTAT00000028974,MDPQTALSRALLLLLFLHLSLLGCRSHPVGGPGPVSELPGLQELLDRLRDRVSELQAEQLRVEPLQQGQ,26,5,10,
ENSBTAP00000049364,ENSBTAT00000056907,MLSLLLLLTGLGQLASAGHHSETARLQITVPRKIETNTKDGSISETHVAYSIQIDKKTYTLPLEKQSFL,17,5,3,
ENSBTAP00000009709,ENSBTAT00000009709,MAATLWAFFSVLLLLLSRDAQSSEVSGSTSDGSGGSGVGTGDRFKIEGRAVVPGVKPQDWISAARVLVD,22,5,11,
ENSBTAP00000027425,ENSBTAT00000027425,MKWASSLQVLLLLLLAGSRLHKNLASTCGQPRVSSRIVGGRDARAGEWPWQASIQHRGAHVCGGSLIAP,25,6,9,
ENSBTAP00000012643,ENSBTAT00000012643,MLLRGRPRTLGAAALLLLLLLGFFLFGGDPDCELGGEREARRGGGGGGDPRSVPGSPTPRVPPDGRPRS,30,7,14,
ENSBTAP00000025389,ENSBTAT00000025389,MLLLLLGIIVLHVAVLVLLFVSTIVSQWMVGNGHATDLWQNCSTSLMGSVQHCFSSSANEWLQSVQATM,26,5,1,
ENSBTAP00000010988,ENSBTAT00000010988,MGARGVESPPRGPGPLLSAILPLGLLLLLLLLPPLGSGAGASRPPHLVFVLADDLGWNDVGFHGSAIRT,38,8,24,
ENSBTAP00000023313,ENSBTAT00000023313,MSWAVVFGLLAALLLLLLLTRRRTRRPGEPPLDLGSIPWLGHALEFGKDAAGFLTRMKEKHGDIFTVLV,24,7,12,
ENSBTAP00000056534,ENSBTAT00000063422,MGAAAWAPSLLPPRVSLLLLLLPLPGLPVGSWDPAGYLLYCPCMGRFGNQADHFLGSLAFAKLLNRTLA,31,6,16,
ENSBTAP00000011706,ENSBTAT00000011706,MAPAPNFHGHQWTYNPVRGSCLLLLLVVSNLLLCQGNSCPSCGPNVFVSLRKSLTDLYIDAAWLSHEFH,36,5,21,
ENSBTAP00000013401,ENSBTAT00000013401,MAPAPSFCGHQWTYNPVRGSCLLLLLVMSNLLLCQGNSCPSCCPDVSDIPLDLLRELFLNATLLSQSIL,36,5,21,
ENSBTAP00000056467,ENSBTAT00000063662,MLSKLLLLLCFRLCVGQADRGRAEVLPKPSLRAWPSSVVPDGSSVTLRCGTPTRDVSFALRKGARVWEM,18,5,4,
ENSBTAP00000002282,ENSBTAT00000002282,MGLRLPILLLLLCCVSGLPFYNGFYYSNRPNGRNLGNSYSEGIFNGVKLVVETPEETLFSHRGANVTLP,17,5,7,
ENSBTAP00000017556,ENSBTAT00000017556,MLTPPLLLLLPLLSALVAAAVDVPKTCSPKQFACRDQITCISKGWRCDGERDCPDGSDEAPEICPQSKA,19,5,5,
ENSBTAP00000015116,ENSBTAT00000015116,MAPAPSFCGHQWTYNPVQGSCLLLLLVMSNLLLCQGRTCPFCCSDVFDIPLESLRNLFLNATMLSRDIA,36,5,21,
ENSBTAP00000040403,ENSBTAT00000042779,MHPWVAILGLLLLLTDGVTSYSQVTGRTGESVRLPCLYTGEITTACWGRGECSWWSCREDIIQTDGYKV,20,5,9,
ENSBTAP00000036263,ENSBTAT00000036405,MWGAQLGPLLRFLLLLLSPRDGVRAEQPQAPGYLIAAPSVFRSGVEEAISVTIFNSPREVMVQAQLVAL,25,5,12,
ENSBTAP00000029126,ENSBTAT00000029126,VMARRQPWWDLRGPTTPLLLLLSLLSLFPLSREELGDGGGHGWDPGVAAATGPGARIGNGALALCPEPP,33,5,17,
ENSBTAP00000030635,ENSBTAT00000030663,MGWLPLLLLLIWFSGAPGQRSPLNDFQVLRGTELQHLLHSVGPGPWQEDVANAEECAGLCGPLLDCRAF,18,5,5,
ENSBTAP00000035396,ENSBTAT00000035521,MAPAPSFHAHQWTYNPVRGSCLLLLLVMSNLLLCQGNSCLCSRPAVIDIPLESLTVLLLNASRLSHNIL,36,5,21,
ENSBTAP00000013292,ENSBTAT00000013292,MAPRRDAQCWRLLLLLSTSALLPGVTRTRSATESASRGPLDLTELVGVPLPSSVSFVAGYGGFPAYSFG,28,5,11,
ENSBTAP00000051405,ENSBTAT00000005511,LSPPGRQPPTQRDTEATMASSAGLLLLLLLLSIQSRAENTTDWEAVVCAGSACYTAHRHKLSAEDAQLH,37,8,23,
ENSBTAP00000053357,ENSBTAT00000060960,MGPGPRGRRPRRRRPMSPPPPLPSVRTLPLLLLLVGPGAAAPPCLDGSPCVNGGRCTQLPSREAACLCP,40,5,29,
ENSBTAP00000004318,ENSBTAT00000004318,MARPRHQPGGLCLLLLLLCQFMEDRSAQAGNCWLRQAKNGRCQVLYKTELSKEECCSTGRLSTSWTEED,29,6,12,
ENSBTAP00000020677,ENSBTAT00000020677,MSRHSQDERLGLPQPPALLPLLLLLLAVAVPLSQAGVYYATAYWMPTEKTIQVKNVLDRKGDAYGFYNN,35,6,20,
ENSBTAP00000046571,ENSBTAT00000049716,MAVALGPSGWWQRWRRRLSAREVSRMLLLLLLLGSGQGPRQVGAGQTFEYLKREHSLSKPYQGVGTSSS,44,7,26,
ENSBTAP00000053843,ENSBTAT00000061577,MGPGSHHLSLGLSVSSLGLLLLLPLLPGPLECLGAEGRLAHKLFRDLFANYTSALRPVADTDQALNVTL,32,5,18,
ENSBTAP00000019846,ENSBTAT00000019846,IMKGPSPTSSLLLLLLFLSPGPGGAFPLALSTACCTQLYRQPLPNKLLRRVIRVELQEADGDCHLQAFV,25,6,10,
ENSBTAP00000007349,ENSBTAT00000007349,MQPRLGGPALLLLPPLLLLLLLGAGGGDCGARAEVLFRCPPCTPESLAACKPPPGXRCGVYTPRCGQGL,26,7,15,
ENSBTAP00000017359,ENSBTAT00000017359,MVLLLLLVALLSPTGEAGKIIGGHEAKPHSRPYMAFLQVKTSGKSHNCGGFLVREDFVLTAAHCLGRPF,17,5,2,
ENSBTAP00000019316,ENSBTAT00000019316,MSSLGSQLCRAAFLGALLLLLRVKGVKTQRGSPGLDERSQKEKTPSTDQDREQFEEHFMAASVGEMWQV,28,5,16,
ENSBTAP00000011042,ENSBTAT00000011042,MQPPRAPFLPPPTPPLLLLLLLLAAPASAQPARAGRSAPGAAGCPERCDPARCAPPPGSCEGGRVRDAC,29,8,15,
ENSBTAP00000017563,ENSBTAT00000017563,LQPLLLLLVVAVRALPSADGTCPERALERREEEANVVLTGTVEEILNVDPVQHTYSCKVRVWRYLKGKD,20,5,3,
ENSBTAP00000022065,ENSBTAT00000022065,MRGAGTGTGGAAVAVAMSLLLLLLSRSPPAAAGDGRKSDSRLVSEQFSQAPQKLAFYNWYGSARLFHFR,32,6,18,
ENSBTAP00000042536,ENSBTAT00000045121,MAAPGGARRRPLLLLLFAGLVHGASAVFVVKNGNGTACIMADFSATFLTSYDTRSGPQNKSFELPAGAE,26,5,11,
ENSBTAP00000021595,ENSBTAT00000021595,MGAAAWAPSLLPPRVSLLLLLLPLPGLPVGSWDPAGYLLYCPCMGRFGNQADHFLGSLAFAKLLNRTLA,31,6,16,
ENSBTAP00000050579,ENSBTAT00000056815,MSRHSQDERLGLPQPPALLPLLLLLLAVAVPLSQAGVYYATAYWMPTEKTIQVKNVLDRKGDAYGFYNN,35,6,20,
ENSBTAP00000016731,ENSBTAT00000016731,MVAPALLLLLALPAGAWRGLGLPRRPCVQCCHPAWPPAAPGPGAHVSDGDAWAGLPRLRPTIDISILKG,16,5,5,
ENSBTAP00000049498,ENSBTAT00000055945,MGFGLRGALSLLLLLLAPPGRSAAGCPAPCRCAGTRVDCGRRGLTWASLPAVFPPDTTELVLTGNNLTA,23,6,10,
ENSBTAP00000016317,ENSBTAT00000016317,LSPPGCCVELLLLLLAGELPLGSGCPRDCVCYPAPMTVSCQAHNFAAIPEGIPEDSERIFLQNNHITLL,24,6,9,
ENSBTAP00000006422,ENSBTAT00000006422,MIPIPRMPLVLLLLLPILSSAKAQVNPAVCRYPLGMSGGHIPDEDITASSQWSESTAARYGRLDSEEGD,23,5,10,
ENSBTAP00000016755,ENSBTAT00000016755,PPSAYLLAGPPACVLLLLLAAAPAAARCPMLCTCYPAPPTVSCQANNFSAVPRALPPGTQRLFLQNNLI,26,5,14,
ENSBTAP00000008097,ENSBTAT00000008097,RARGGRPRPALLLLLLHLRWPQVAGAAGAPWSGPGTTPHLQSIFLGRCAEQIALQNPELRDKNCTAIWE,25,6,10,
ENSBTAP00000026827,ENSBTAT00000026827,MSSPSWGGLGALLLLLLLPGWASPTFVRVNQGVRVMKGSSAFLSQDDLKFTIPKEKDACKVEVVMNEPI,22,7,11,
ENSBTAP00000017496,ENSBTAT00000017496,MASCLVPALLLLLLLGSRSSVAPNPCVDAADACTADERCHRLRTAYVAQCLGRAAPEGCPRARCRRALR,19,7,8,
ENSBTAP00000000795,ENSBTAT00000000795,MARRSRHHLLLLLLRYLVVALDYHKAYGFSASKDHQVVTAIEYQEAILACKYPKKTVSSRLEWKKLGRG,20,6,8,
ENSBTAP00000007271,ENSBTAT00000007271,MPTCPPWWLLLLLSLWEPLLRSAEAGSEGQTAGELYQRWERYRRECQETLEASEPPAGLACNGSFDMYV,25,5,8,
ENSBTAP00000015567,ENSBTAT00000015567,MPAELLLLLIVAFASPSRQVLSSLRMAAILDDQTVCGRGERLALALAREQINGIIEVPAKARVEVDIFE,22,5,4,
ENSBTAP00000056128,ENSBTAT00000065322,MGQWGFRLVALLLLLRHRQGAEACSTVGCCFQNPPYPDADSGSASGPRAPSCYRVFSSAGYECSWEYEG,23,5,10,
ENSBTAP00000022716,ENSBTAT00000022716,AAMAWKPGLLLPLLLLLLGPAPARSFGQLPLVLNTWPFRNATVAAWKTLAAGGSALDAVESGCATCEQQ,23,6,12,
ENSBTAP00000027035,ENSBTAT00000027035,MKGCLLLLLLLLGTVSALYLEKDAPHVGSPETQADLSQDAEGSGGQEGELALSGEVVELGGEEAEDAHD,17,8,4,
ENSBTAP00000020125,ENSBTAT00000020125,MAPARLLALLLLLVGVPAAAAESIRETEVIDPQDLLESQYFSGDLPDDEDVGGPGQESDDFELSGSGDL,21,5,8,
ENSBTAP00000010124,ENSBTAT00000010124,MDSVALMPLLLLLLLQPPPATPAPPVRDPFALQLGDTQNCQLRCRDRYPKPQLAQEELGEDPIQSRRAK,22,7,8,
ENSBTAP00000005821,ENSBTAT00000005821,MELWPGAGTLLLLLFLLLLLLLPTLWFCSPSAKYFFKMAFYNGWILFLAVLAIPVCAVRGRNVENMKIL,28,5,9,7,15,
ENSBTAP00000032173,ENSBTAT00000032236,MHLASLLSSCSLLLLLGALPGWAANNDPIEKVIEGINRGLSSAEREVGKALEGINNGITQAGREVEKVF,23,5,11,
ENSBTAP00000028521,ENSBTAT00000028521,ARAGAATMASPPLLLLLLPLLLLPPPAAPGTRGQPFSPAGAGPAWPTESSPGLKLPPSPTSPPERRGPA,29,6,12,
ENSBTAP00000044507,ENSBTAT00000047290,MWGAQLGPLLRFLLLLLSPRDGVRAEQPQAPGYLIAAPSVFRSGVEEAISVTIFNSPREVMVQAQLVAL,25,5,12,
ENSBTAP00000015451,ENSBTAT00000015451,MRNAALLMTRATSLRLSLLLLLSFLPDLDGGVRAKELRFVTLVFRHGDRSPIETFPNDPIKESSWPQGF,34,5,17,
ENSBTAP00000000084,ENSBTAT00000000084,MATVRASPRGALLLLLTVARVAEVAGGLAPGSAGALCCNHSKDNQMCRDVCEQIFSSKSESRLKHLLQR,26,5,11,
ENSBTAP00000035745,ENSBTAT00000035878,MWVTELRTLLLLLSESLALTKTWAGHIHLGHGDPRPKERRPGWQPLPVPGVHSLRYFHILVSRPGLGRD,24,5,8,
ENSBTAP00000008376,ENSBTAT00000008376,MRGQAAGPGALWILGLLLLLGRQVGTAAGTAAGPGAEPCATLVQGKFFGYFSAAAVFPANASRCSWTLR,27,5,15,
ENSBTAP00000008833,ENSBTAT00000008833,MSRQGISLRFPLLLLLLSPSPVLPADPGAPAPVNPCCYYPCQHQGICVRFGLDRYQCDCTRTGYYGPNC,24,6,11,
ENSBTAP00000042037,ENSBTAT00000044548,MRLLLLLLVAASAVVRSDASANLGGVPGKRLKMQYATGPLLKFQICIEASYRRVFEEYMRVISQRYPDI,19,6,2,
ENSBTAP00000021565,ENSBTAT00000021565,MQGRTWGLRLLLLLGLRLGSQEALPPPCGSQIYCHGELLRQVQMAKLYQDDKQFVDMPLSSAPDQVLRH,23,5,9,
ENSBTAP00000003509,ENSBTAT00000003509,MTVLGHPRSWSCRWWPLLLLLLLTGREPGVEGVTHYKAGDPVILYVNKVGPYHNPQETYHYYQLPVCCP,32,7,16,
ENSBTAP00000041976,ENSBTAT00000044483,MAPLPPCGPPRSPPPRLLLLLLLLSATLLGAPARAEPAAGSAVPAQSRPCVDCHAFEFMQRALQDLRKT,35,8,16,
ENSBTAP00000031823,ENSBTAT00000031877,MMWPPSLLLLLLLLRRGAQGKPSPDAGPHGQGRVHHAAPLSEAPHDDAHGNFQYDHEAFLGREVAKEFD,20,8,6,
ENSBTAP00000005745,ENSBTAT00000005745,EAGNEMLGNRAVMLLLLLLLPWTAQGRAVSEDSSPAWTRGQQLSQQLCMLAWSAHLPMGHVDLPREEGG,26,7,13,
ENSBTAP00000031648,ENSBTAT00000031699,MDKLLLLLLLLGVFPFVFFQAPATLCKVCTIFKRGICLYGEGNCTAEEGPGCRTSDMSFFNVKDGWLYN,19,8,3,
ENSBTAP00000015268,ENSBTAT00000015268,SALGFQLIMPQPPAAALALPVLLLLLLLVVRTPPPTGARPSPGPDYLRRGWLRLLAEGEGCAPCRPEEC,38,7,21,
ENSBTAP00000027871,ENSBTAT00000027871,MPPLCRRPSRRVLLLLLALLLPSSPPACAPAPPGPAAALLQALGLPDVPRGAPESRPVPPVMWRLFRRR,30,5,12,
ENSBTAP00000036928,ENSBTAT00000037089,MTAGSQGDRPVILLLLLCALGPSVSQGGKLLVVPVDGSHWLSLVGPLQPLQQKGHDIVVLAPDASIYIK,27,5,12,
ENSBTAP00000054551,ENSBTAT00000065534,MRPPAPAVLGLLLLLLPTGEATKKPTPCKRCRELVDKFNQGMVDTAKKNFGGGNTAWEEKTLSKYEFSE,21,6,10,
ENSBTAP00000026893,ENSBTAT00000026893,MGTRPPKALLLLLLLRLLPPRGASAGSLQSPGLSECFQVNGADYRGHQNRTGPRGAGRPCLYWDQTQQH,25,7,8,
ENSBTAP00000024820,ENSBTAT00000024820,MKVLISSLLLLLPLMLMSVVSSSSHTGVARGQRDQRQASGRWLREGGQECECQDWFLRAPRRTLMAAPR,22,5,7,
ENSBTAP00000034674,ENSBTAT00000034789,MASLRAEHAVGGSWLPATRSGRPAALRLLLLLGAVLKPQESLAQLLPTPDSSKSEGKTVLETYGTNVLQ,43,5,27,
ENSBTAP00000006962,ENSBTAT00000006962,MVVLAPAWSPTTSLLLLLLLLSPGLQGTPDCSFRHSPISSTFAIKIGKLSKYLLQDYPVTVASNLQDDK,27,8,13,
ENSBTAP00000009180,ENSBTAT00000009180,MSPVRPRARAVLSLLGGLGPQLLLLLLRPLAASGDCSLPPDVPNAQAALGGLTSFPEKRTVTYKCNRGF,34,6,21,
ENSBTAP00000016771,ENSBTAT00000016771,MATSSARPAFLVMTALALLLLLCVGPGGISGNKLKLLLRKREAPAPTMTPVAVQESRAKEFLSSLRRPK,31,5,17,
ENSBTAP00000047813,ENSBTAT00000055134,MEFWCELPAGRRGPPRPGTSTLALALASAGLLLLLLRPLGRPAPAHPPTPSDLASTSDSLPPSTGCLGA,42,6,30,
ENSBTAP00000028684,ENSBTAT00000028684,MAPLPLCPKVGLLLLLLLGSEPGLRAAPQRSHVHRRGLIGLAGTIDCVGPRPALVYVKYGCFCGLGGHG,26,7,11,
ENSBTAP00000002535,ENSBTAT00000002535,MVGVLLLLLLLPFLLYIAAPQIRKMLSSGVCTSTIQLPGKVAVVTGANAGIGKETAKELARRGARVYLA,19,7,4,
ENSBTAP00000029577,ENSBTAT00000029578,MFLQLLLLLALLGPGSSHQLGETSTNETVKAPGPLYPGEERDPEDDEDYDYIGQTDPPEMLDNITEVPK,17,5,4,
ENSBTAP00000008500,ENSBTAT00000008500,MGPKLLLLLLLGLIGQGSAGSLPELLQASVGSSILVQCHYRLQDVKARKVWCQVLPEGCQPLVTSTVNR,19,7,4,
ENSBTAP00000002601,ENSBTAT00000002601,MKGCLLLLLLLLGTVSALYLENHVPHVGSPETQADLSQDAEGSGGQEGELALSGEVLESGREEAEDTHD,17,8,4,
ENSBTAP00000027940,ENSBTAT00000027940,MGSGAAGRAMDGPRLLLLLLLLLGVSLGGAKEACLTGLYTHSGECCKACNLGEGVAQPCGANQTVCEPC,30,9,14,
ENSBTAP00000019092,ENSBTAT00000019092,MLLLALLLLLELSLAGSLGPGSSAQNLPENHIDLSGPALWTPQASHHRRRGLGKKERGPGTPGWTQDGA,15,5,5,
ENSBTAP00000038799,ENSBTAT00000038995,MGAPRPAVLLLLLLLFLDAANAQARDEVLENVSPSCPKDAVRFKHLRKYVYNYEAESSSGVPGTADSRS,22,7,8,
ENSBTAP00000040771,ENSBTAT00000043181,MRALSGPRLMLCGLLLLLFQAPCALGLAPLSRGHLCRTRPTDLVFVVDSSRSVRPVEFEKVKVFLSQVI,26,5,13,
ENSBTAP00000054784,ENSBTAT00000065977,HQLLPGLLLLLWLPTSLARHSPSLLVGAHTHPHSPGTLRCYSAEELPLGHAPPHLLARAAKWEQALPVA,18,5,6,
ENSBTAP00000027527,ENSBTAT00000027527,MGRHLASLLLLLRLLQHFRDGDGSGTLEEMPLQFTHFQYNVTVHENSAAKTYVGHPVKMGIYMTNPLWE,23,5,7,
ENSBTAP00000016040,ENSBTAT00000016040,MERAAPSRRVPLLLLLLGGLSLLAAPAGADVSMEACCADGHRMATEHRACSLPYTSESKECRMVQEQCC,29,6,11,
ENSBTAP00000014587,ENSBTAT00000014587,MAPWLQLLLLLGLLPAAAPASSKPPAAGAQAWELASPELREPARFALEMYNRGRAAGTRAALGAVRGRV,22,5,6,
ENSBTAP00000021451,ENSBTAT00000021451,MGPRTLLLLLLGVLVPRDTRAGPHSMRYFLTAVSRPGLGEPRFITVGYVDDTQFVRFDSDRPDPRMEPR,21,6,5,
ENSBTAP00000017446,ENSBTAT00000017446,MGQPLLLLLLVYTYIPGSWGLRCLQCENTTSCSVEECTPGQDLCRTTVLSVWEGGNEMNVVRKGCTHPD,20,6,4,
ENSBTAP00000014986,ENSBTAT00000014986,MRGLLYSLLPLLLLLLQPWETQLQLAGPRCSSGPLDLVFVIDSSRSVRPFEFETMRQFLVGLLRSLDVG,23,6,10,
ENSBTAP00000008917,ENSBTAT00000008917,MSLPPLLLLLLLPPPFLTLEPARASLIRIPLRRVNIGFKALNPLRGWEKLAEPPRLGAPAPGNKSLFVP,18,7,5,
ENSBTAP00000007981,ENSBTAT00000007981,LNSQRLSLLLLLLLLPGPQPALGMEDDASFPHLGESSQPPPRACPPRCSCPRPDTVDCDGLDLRVFPDN,23,8,7,
ENSBTAP00000008803,ENSBTAT00000008803,MRLLTAALLLLLLALCAARVDGSKCKCSRKGPKIRYSDVKKLEMKPKYPHCEEKMVIITTKSMSRYRGQ,18,6,7,
ENSBTAP00000023534,ENSBTAT00000023534,FLPAPFCLLLLLLPPLSLGAPMSTAESVNQAYNLALDMQRHTFTLLQTYLQHQGSPFSDPDFSIPELSL,19,6,7,
ENSBTAP00000055940,ENSBTAT00000064098,MRGQAAGPGALWILGLLLLLGRQVGTAAGTAAGPGAEPCATLVQGKFFGYFSAAAVFPANASRCSWTLR,27,5,15,
ENSBTAP00000018804,ENSBTAT00000018804,MAAMRRALLLLLYVSHASASCGIQKSNIAVTSEEGLVEEQEFPWVVSLQDSQYTHLTFGSILSEFWILS,19,5,7,
ENSBTAP00000006285,ENSBTAT00000006285,MRGATRAAGGRAGQLWPRPPAPGPGPPPLLLLLAVLLGGAGAQYSSDLCSWKGSGLTHEAHRKEVEQVY,42,5,28,
ENSBTAP00000035741,ENSBTAT00000035874,RVMGPRTLLLLLSGVLVLTETWAGSHSLSYFNTGVYQPGLGEPRFFAVGYVDDTQFARFDSDAPNPRME,23,5,7,
ENSBTAP00000044570,ENSBTAT00000047358,MTAPCSRPARLPPRRRPGLVPFPPPLLLLLLLAAAGPAHGWESGDLELFDLVEEVQLNFYQFLGVQQDA,40,7,25,
ENSBTAP00000006167,ENSBTAT00000006167,MGKNKLLYPSLTLLLLLLLPTDASVSGKPQYMVLVPSLLHTETPEKGCLLLSHLNETVTVSASLESVRE,23,7,12,
ENSBTAP00000016421,ENSBTAT00000016421,MASGWDARPPWRPGRLPLLLCLLLLLQLLRSPARAAHIKKAEATTTTTTSAGAEDEGQFDRYYHEEELG,35,5,21,
ENSBTAP00000037042,ENSBTAT00000037204,MVPVLLALLLLLGPAVSEETQAGNYSLSFLYTGLSKPREGFPSFQAVAYLNDQPFFHYNSEGRRAEPLA,17,5,7,
ENSBTAP00000011877,ENSBTAT00000011877,MYLVAGGRGMAGCGHLLVSLQGLLLLLARSGTRALVCLPCDESKCEEPKSCPGSIVQGFCGCCYMCARQ,34,5,22,
ENSBTAP00000025803,ENSBTAT00000025803,MERPPLPALLLGAAGLLLLLLPLSSSSSSDACGPCEPAACPPLPPRGCQLGETRDACGCCPVCARGEGE,26,6,15,
ENSBTAP00000043390,ENSBTAT00000046062,MGPGALSFLLLLLLVATGDADMKGHFDPAKCRYALGMQDRTIPDGDISASSSWSDSTAARHSRLESSDG,20,6,8,
ENSBTAP00000004124,ENSBTAT00000004124,MALRRRPSLVLLLLLVRGCLIGAVNLKSSNRTPVVQEFESVELSCIITDSQTNDPRIEWKKIQDEQTTY,23,5,10,
ENSBTAP00000039864,ENSBTAT00000040084,MQLRRQPLSAPRPGDTRPAAQRLAVPLLLLLALQGAAASGGPEDSGWLQDAEPSSRLLSQAARAALHFF,38,5,26,
ENSBTAP00000036816,ENSBTAT00000036968,KMSMKWLSLLLLLQLTCYFSSGTCGKVLVWPVEFSHWMNMKAVLDELVMRGHEVTVLISSASTITDANK,25,5,8,
ENSBTAP00000014379,ENSBTAT00000014379,MAPSPWGCVHGLLLLLPLLSLGASPALGRGLPRPLEDSEPHLAPGAQGKGPLDTERQAFDFFWENPRDE,28,5,11,
ENSBTAP00000020313,ENSBTAT00000020313,MDSKGSSQKGSRLLLLLVVSNLLLCQGVVSTPVCPNGPGNCQVSLRDLFDRAVMVSHYIHDLSSEMFNE,30,5,12,
ENSBTAP00000024298,ENSBTAT00000024298,MEPRPLLLLLGLCSAGLVLGSEHETRLVAKLFEDYNSVVRPVEDHRQAVEVTVGLQLIQLINVDEVNQI,20,5,5,
ENSBTAP00000013555,ENSBTAT00000013555,MRPQGPAASPRRLLGLLLLLLLQLRAPSSASDTPKGKQKALLRQREVVDLYNGVCLQGPAGVPGRDGSP,30,7,15,
ENSBTAP00000025007,ENSBTAT00000025007,MASSGPLVPPLLLLLVLLAGAARAGLHFRPGRGCYRPLRGDRLTQLGRRTYPRPHEYLSPSDLPKSWDW,24,5,10,
ENSBTAP00000052910,ENSBTAT00000056816,FCSVNSGNWHLPLHSSTFSWRNVALLLLLSLSLEQTSASPSYRVKMKPGKCPQERITCSSKAPDLCKTD,38,5,24,
ENSBTAP00000008101,ENSBTAT00000008101,MLLLLLHRAVAPGLRQAYRLKSTPARLCIRACCTNDSFQPQRSSFTFSGDNSSTRGWRVMGTLLGLGAV,17,5,1,
ENSBTAP00000001408,ENSBTAT00000001408,METRQVPRSPRVRLLLLLLLLVSWGHRTASGVALPPAGVFRLRTPGEARAGPATPQSRRSLALADDAAF,25,8,13,
ENSBTAP00000054739,ENSBTAT00000064802,MSADTELLWPGAALLLLLGAAASLCVRCSRPGAKKSEKIYEQRSLQENQQSFAVARTYTLVREAWPGDT,23,5,13,
ENSBTAP00000009186,ENSBTAT00000009186,MPGSVARLLPRLRPSGTSPLFLLLLLALLRGPVCGRVPHSVPRTSLPISEADSYLTRFTIPQTYNYSVL,35,5,21,
ENSBTAP00000021009,ENSBTAT00000021009,MPAQAQALLLLLLLPLLLLTLPATGSDPVFCFAQYEESTGKCKDLLGRGVSVEDCCLNAGYAFQKPGSN,25,7,7,
ENSBTAP00000020344,ENSBTAT00000020344,MARAAALRPLRLSPPTLPLLPLLLLLLRETGAQDVRVQVAAEVRGNLGDTVELPCHLLPSAPEIRVSQV,32,6,21,
ENSBTAP00000026798,ENSBTAT00000026798,MNRLLLLLLLLQKIEQSKSNVTKQKQTTTAKTFCIRSSVSVNKVKQYLSNILEQRKPINVISKKENLLE,19,8,3,
ENSBTAP00000014143,ENSBTAT00000014143,MGPGALSFLLLLLLVATGDADMKGHFDPAKCRYALGMQDRTIPDGDISASSSWSDSTAARHSRLESSDG,20,6,8,
ENSBTAP00000003655,ENSBTAT00000003655,MPSGGLEHPHMLTQRPLLLLLWLLLRLVTRAQTAPAAPIALTSLDTSSTLSLGERARALMRDFPLVDGH,33,5,16,
ENSBTAP00000001830,ENSBTAT00000001830,MAAERSLWVVGLCPGSRLGRVVRVLLLLLWFAARGGALYFHIGETEKKCFIEEIPDETMVIGNYRTQLY,37,5,24,
ENSBTAP00000041817,ENSBTAT00000044309,MHLPLPPPPLLLLLAAVAAATTTFRPDWNRLQGLARARVETCGGXDLNRLKEVKAFVTQDIPLYHNLVM,20,5,9,
ENSBTAP00000022987,ENSBTAT00000022987,MAVSERRGLGRGSPAEWGPWLLLLLLLGGSSGRIHRLTLTGEKRADIQLNSFGFYTNGSLEVNLSLLRL,32,7,20,
ENSBTAP00000002786,ENSBTAT00000002786,MASMRTSSMSLLLLLSLVALVKAGVIIPQSPGCPPTEDKNFPQHVRVNLNIVNRSTNSRRPTDYHKRST,23,5,10,
ENSBTAP00000001351,ENSBTAT00000001351,MARGPARTSLGPGSQQLPLLSLLLLLLLRDADGSHTAAARPPPPAAADGLAGDKNPQRSPGDVAAAQSP,33,7,21,
ENSBTAP00000025624,ENSBTAT00000025624,MTPGALLLLLLGVLGAHLAPGARGSEAEGRLREKLFSGYDSTVRPAREVGDRVWVSIGLTLAQLISLNE,24,6,5,
ENSBTAP00000055776,ENSBTAT00000063758,AMPPAFLLLLLLLLWLQGPVSGAPTEHVYSKLQHFEGETLSVQCSYKSRKNHLEGKVWCKIRRRKCETG,22,8,6,
ENSBTAP00000014908,ENSBTAT00000014908,MAPSGSLRIPVAVLLLLLWGAPWAHGKRSDVRIITDENWRELLEGEWMIEFYAPWCPACQNLQPEWESF,26,5,13,
ENSBTAP00000050885,ENSBTAT00000053259,MGRPERGALRPLALLLLLLQLQHLAAAAADPLHGGQGSVKECDENQFRCRNERCIPSVWRCDEDDDCSD,27,6,13,
ENSBTAP00000043437,ENSBTAT00000046112,MPLLSLSLLLLLLQVPAGSAETAAWAVTPERLREWQDKGIFIIQSENLEKCIQASKSTLTLENCKPPNK,20,6,7,
ENSBTAP00000054564,ENSBTAT00000063123,MVLAGLLLLLTLLAGAHLLWGRWKLRNLHLPPLVPGFLHLLQPNLPIHLLSLTQKLGPVYRLRLGLQEV,18,5,5,
ENSBTAP00000031125,ENSBTAT00000031166,MRVVGQRTLLLLLLLDALILTETRAGSHSLRYFYTAVSRPGLGEPRFISVGYVDDTQFVRFDSDAPDPR,25,7,8,
ENSBTAP00000000744,ENSBTAT00000000744,MAKATASTVGLRLLLLLLPLLGEAPLGLYFSRDAYWEKLYVDQPAGTPLLYVHALRDVPEEVPSFRLGQ,22,6,12,
ENSBTAP00000049410,ENSBTAT00000053062,MAPPLLLLLLASGAAACPLPCICQNLSESLSTLCAHRGLLFVPPNVDRRTVELRLADNFIQALGPPDFR,16,6,4,
ENSBTAP00000013154,ENSBTAT00000013154,MWLQLLLLLLAPQGGHGCHGLELDRELVLAKVRALFLDALGPPPVTGEGGDPGVRRLHRRHAVGGFMRR,17,6,4,
ENSBTAP00000018592,ENSBTAT00000018592,MQPPAPSRLGLLLLLLLSPAHVGGLWWAVGSPLVMDPTSICRKARRLAGRQAELCQAEPEVVAELARGA,24,7,10,
ENSBTAP00000048014,ENSBTAT00000055901,MTQMLLLLLYGFVFLLATESCRTLCQASSKSKEQVSTRPHGECHGTCVDNSYCSQPCPPDTPGDMGFLC,20,5,4,
ENSBTAP00000020110,ENSBTAT00000020110,MAGPGFRGHPAGPLLLLLLLLLPPALTEGPLVFVAVVFRHGDRAPLASYPTDPHKEVASTLWPRGLGQL,27,9,13,
ENSBTAP00000000447,ENSBTAT00000000447,MRACVQLGPLSAMASGPELRPLLLLLLLLSPSPAASASDRPRGSDPVNPEKMLVITVATAETEGYRRFL,37,8,21,
ENSBTAP00000006958,ENSBTAT00000006958,MARPQNPRPLPPALLLLLPLLLRAGDHLPTEGRFTNSCIQARRKCQADPTCNATYHYLNSCASSISTSS,24,5,13,
ENSBTAP00000025033,ENSBTAT00000025033,RSPAARAPLPTPLPPLLLLLLLPPLLGDQVGPCRSLGPGGRGSSGACAPVGWLCPASSSNLWLYTSRCR,27,7,15,
ENSBTAP00000003547,ENSBTAT00000003547,MPALRPLRLLLLLAGLTAGASLPPGPGGHPGVCPNQLSPNLWVDAQSTCERECVGDQDCAATEKCCTNV,19,5,8,
ENSBTAP00000054897,ENSBTAT00000065979,MAPARAGFCPLLLLLLLGLWVAEDAVSARPGNMTPAQWFETQHVQPSPQGCNAAMRKINKFSKHCKDLN,28,7,10,
ENSBTAP00000005815,ENSBTAT00000005815,MLGLPERRLPSAEFLLLLPFLLLLLLLLPAAPAPHRAAYKPVIVVHGLFDSSYSFRHLLEYINETHPGT,32,8,20,
ENSBTAP00000027836,ENSBTAT00000027836,SAEPTMPRHLPGLLLLLWPLLLLPPPPAAPSPMARPGLRRLGTRGPGGSPGRRGPAPAAPASVPYSGTG,30,5,12,
ENSBTAP00000005537,ENSBTAT00000005537,MVSRGPLAIWHGLLLLLLLPLPSHGGPALRPPLPSQTTEDSPALHLSSGPGQEPVTIMTFNLTKITKIS,25,7,12,
ENSBTAP00000038676,ENSBTAT00000038869,KMLVLLLLLGPTGSGLGALVSQQPRRAVSKSGASVTIECRALDFQATTVFWYRQFLKRGLVLMATSNEG,17,5,4,
ENSBTAP00000002834,ENSBTAT00000002834,MSSPGLRLLLLLLAAPPLQPSWLPPPDTPEGKATITGFILSALDRATSFLKKRLPEINLDGVVGFRMLE,20,6,7,
ENSBTAP00000023218,ENSBTAT00000023218,MRLLSLAPDRPRRGGPRHLTSGSPALPPPPPLLLLLLLLGGCLGVSGAAKSSRRPNVVLLLADDQDEVL,44,8,31,
ENSBTAP00000047966,ENSBTAT00000057531,MGAASGRRSPPLLLPLLLLLLPPPPVILELDPALQPGNFPADEAGAQIFAASFNSSAEQVLFQSTAASW,28,6,15,
ENSBTAP00000026553,ENSBTAT00000026553,MASLPRRRLRLRPRRLLLLLPGILLPLCGAFNLDVESPAEYSGPEGSYFGFAVDFFVPSASSRMFLLVG,30,5,15,
ENSBTAP00000002235,ENSBTAT00000002235,MEPAGPGLRGQAPLLLLLLLLQAAGPAGARAETLLDAPRARGTSSIPPSPASVVAPGTTPFEESRLPVF,31,8,13,
ENSBTAP00000042582,ENSBTAT00000045168,MVSAAAPSLAVSLLLLLRVLPTVSYSVSLQAGFLEDTGGSGEAEGSSASSPSLPPPQTPALSPTLVGPE,24,5,12,
ENSBTAP00000036781,ENSBTAT00000036932,MASAVLPSGPQCAAAAAAAAAAAPPGLRLRLLLLLLSAAALIPTGDGQNLFTKDVTVIEGEVATISCQV,47,6,30,
ENSBTAP00000002774,ENSBTAT00000002774,MSSLSILHLLLLLLALHAPQAKGLPVVTSRTPYSMLMKEIMDDLKKITPSPEGSLNSDEKNFLTKESLL,23,6,8,
ENSBTAP00000049002,ENSBTAT00000053096,MAPAQRPLLPLLLLLLPLPPPPFAHGEDAARANSDRYAVYWNRSNPRFHAGAADDGGGYTVEVSINDYL,26,6,10,
ENSBTAP00000020009,ENSBTAT00000020009,MVRVCVPYLLLLLLPSLLRVSADTTEPCELDDDDFRCVCNFTDPKPDWSSAVQCMVAVEVEISAGGRSL,22,6,8,
ENSBTAP00000011287,ENSBTAT00000011287,MELGVSSQLWLWLLLLLLPPVPGREKESGSKWKVFIDQINRALENYEPCSSPNCSCYHGVIEEDLTPFR,23,6,12,
ENSBTAP00000024233,ENSBTAT00000024233,MMSPLHSSWRTGLLLLLLFSVAVRESWQTEEKTCDLVGEKGKESEKELALLKRLTPLFNKSFESTVGQS,24,6,12,
ENSBTAP00000002045,ENSBTAT00000002045,MAASGWARAAVIFLCACDLLLLLLLPPRAFATEGPAETPGEATPPPRKKKKDIRDYNDADMARLLEQWE,31,7,18,
ENSBTAP00000003619,ENSBTAT00000003619,MRTPRGPPSRPALLLLLLLLGGAHGLFPEEPPPLSVAPRDYLNHYPVFVGSGPGRLTPSEDADDLNIQR,25,8,12,
ENSBTAP00000011255,ENSBTAT00000011255,MGAALSQGALIAIICNGLVGFLLLLLWVILCWACHSRSANIDSLSESSPNSSPGPCPEKAPPPQKPSHE,33,5,21,
ENSBTAP00000023767,ENSBTAT00000023767,MPLSLGAEMWGPAAWLLLLLLLASFTGQRLAGELETSDLVTVVLGQDAKLPCFYRGDPGEQVEQVAWAR,31,7,15,
ENSBTAP00000040572,ENSBTAT00000042970,MRSWVVGARLLLLLQLVLVLGAVRLPPCTDPRHCTDPPRYTPDWPSLDSRPLPAWFDEAKFGVFVHWGV,21,5,9,
ENSBTAP00000047624,ENSBTAT00000057188,MRLSLLLLLPLLGAWAIPGGFGDEASLTATAPELDDEEKFSTHIPTHLRCDACRAVAYQMWQHLTKAEA,16,5,4,
ENSBTAP00000050126,ENSBTAT00000051876,MVLLLLLVALLSPTGEAGKIIGGHEAKPHSRPYMAFLLFKTSGKSHICGGFLVREDFVLTAAHCLGSSI,17,5,2,
ENSBTAP00000023962,ENSBTAT00000023962,MLSLGPERPHVLIQRPLLRLLLLLWLLLRLVTSAQTTPGGPSAQTTWGTPSALTRPATSSTPTAPGTPR,33,5,19,
ENSBTAP00000021596,ENSBTAT00000021596,MGAAAWAPSLLPPRVSLLLLLLPLPGLPVGSWDPAGYLLYCPCMGRFGNQADHFLGSLAFAKLLNRTLA,31,6,16,
ENSBTAP00000010381,ENSBTAT00000010381,MELAPRNCPVPLLLLLLGLSTGAVISQPPEDSKEVWGYVTVRKDAHMFWWLYYATSSHKNFSELPLIMW,26,6,11,
ENSBTAP00000026958,ENSBTAT00000026958,MAAAPLLLLLLLVPVPLLPLLAQGPGGALGNRHAVYWNSSNQHLRREGYTVQVNVNDYLDIYCPHYNSS,22,7,5,
ENSBTAP00000031646,ENSBTAT00000031697,LLLLLGIFPFVFFQGVGKEFRFLSKVSEQAPDTLCMVCKNFKKGQCLQGKGNCTMEQGPGCRTRDFFLF,17,5,0,
ENSBTAP00000022979,ENSBTAT00000022979,MKPTSGPSLLLLLLASLPMALGNPMYSMITPNILRLESEETVVLEAHGGQGTIQVSVTVHDFPAKKQVL,22,6,8,
ENSBTAP00000031895,ENSBTAT00000031949,MGWCAVKTQQLLLLLLAALVLQPWNPCLGADSEKPSSIPTDKLLVITVATKESDGFHRFMQSAKYFNYT,29,6,10,
ENSBTAP00000028346,ENSBTAT00000028346,VRLAAMGRGSRASALLGALPLPLLLLLPLLLLPPSPSRALTPRISLPLGSEKRPFLRFEAENVFNYTSF,39,5,22,
ENSBTAP00000025005,ENSBTAT00000025005,KMSMKRLSLLLLLQLTCYFSGGSCGKVLVWPVEFSPWLNIKTILEELVTRGHEVTVLISSASTIPNSSK,25,5,8,
ENSBTAP00000009575,ENSBTAT00000009575,MPRAPHFMPLLLLLLLSIPHTQAAFPQDPLPLLTSDLHGISPLSWFRGLEDDAVVAELGLDFQRFLTLN,23,7,9,
ENSBTAP00000045970,ENSBTAT00000049024,KMLVLLLLLGPTGSGLGALVSQQPHRAVSKSGASVTIECRALDFQATAVFWYRQFPKRGLVLMATSNVG,17,5,4,
ENSBTAP00000022524,ENSBTAT00000022524,MRGTPAAPFPPRPKPMLLLLLLLLFSRTRPQGSPGPLQCYGVGPLGDLNCSWEPHGDLGAPSMLYVQSQ,30,8,16,
ENSBTAP00000000875,ENSBTAT00000000875,MNPSSTKVSWATVTLLLLLLLLPPALLSPGAAAQPLPDCCRQKTCSCRLYELLHGAGNHAAGILTLGKR,33,8,14,
ENSBTAP00000023166,ENSBTAT00000023166,MCWKTLLLLLLYSDAQATLSHRWTRAVLFPAAYRPKRSSTLPLNPVLQSSLEEVELLYEFLLAELEISP,17,6,5,
ENSBTAP00000030722,ENSBTAT00000030750,MARPVRGALGAPRRSPCLLLLWLLLLLQLEPASATAGPRAPCAAACTCAGDYLDCGGRGLAALPGDLPA,34,5,22,
ENSBTAP00000000307,ENSBTAT00000000307,MALGNRWRPPSLPLLLLLTLAAGAGGLEFGGGPGQWARYARWAGAASSGELSFSLRTNATRALLLYLDD,26,5,13,
ENSBTAP00000047522,ENSBTAT00000057593,MAGLTAAARRPGVLLLLLCILQPSQPGGVPGAVPGGVPGGVFFPGAGLGGLGVGALGPGVKPAKPGVGG,26,5,13,
ENSBTAP00000016882,ENSBTAT00000016882,MRGQWSLLLGPARLCLRLLLLLGYRRRCPPLLRGLVQRWRYGKVCLRSLLYNSFGGSDTAVDAAFEPIY,23,5,17,
ENSBTAP00000041651,ENSBTAT00000044138,MLPVKMRTLLLLLLPLSQAAPKDGTMRLHPEAQHLPLPNPFEPGQEQLRLLQSYLKGLERMEEEPEHMS,19,6,8,
ENSBTAP00000044273,ENSBTAT00000047035,MAESWLLLLLALGCPALPTEVTTLLRPAQQGMGSTPFPSLAPPITLLVDGKQQTLVVCLVLDVAPPGFE,18,5,5,
ENSBTAP00000020696,ENSBTAT00000020696,LPPTAMDVPWGLGLLLLLLGIPIAQAEPLYILVTPRVLRIGSPETIHVEAHSDSSEPLSHPLEVNLSVW,26,6,13,
ENSBTAP00000022907,ENSBTAT00000022907,MLLLLLLAPLFLRPPGAGGAQTPNATSEGCQIIHPPWEGGIRYRGLTRDQVKAINFLPVDYEIEYVCRG,19,6,1,
ENSBTAP00000051840,ENSBTAT00000056239,MAATAALLPALLLLLAFGRSAHGAECFPACHPENGFCDDDSVCRCQPGWQGPLCDQCVTFPGCVNGLCV,23,5,10,
ENSBTAP00000041120,ENSBTAT00000043559,MGRLLRAAGSPLPSLLLLLAGGASLGVRAAGSEEPGSEGLPSTSLLDLLLPTGLEPLDSEEPSEAVGLG,29,5,14,
ENSBTAP00000004400,ENSBTAT00000004400,MGPAARPALRSPPPPPPPPPPPPSPLLLLLPLLPLWLGLAGPGAAADGGEPAAGAGRGGARAVRVDVRL,40,5,25,
ENSBTAP00000007550,ENSBTAT00000007550,MLACRKPGLRPPLLLLLPLLGPLGPCSPGTPAAAAPADDAAELEFFTERPLHLVSPAFLSFTIDANLAT,28,5,12,
ENSBTAP00000045061,ENSBTAT00000047907,MASSPLLFVLLLLLPLEVPAATRWSLLEALPEGAAPCQVGELCLQASPQKPDVPLVNVSLYYEALCPGC,20,5,9,
ENSBTAP00000027247,ENSBTAT00000027247,MDTSQALRLLLLLASGVEVLAFQASSEIQRTSLSSDLESSSQGPGAKIPSNNLPSWKFPDQTAGSKVST,21,5,8,
ENSBTAP00000023124,ENSBTAT00000023124,MALRRGGGGPGLLLLLLLGTACLIPPSAQVRRLVRCPATCSCTKESIICVGSSWVPRIVPGDISSLSLV,29,7,11,
ENSBTAP00000021025,ENSBTAT00000021025,MTLRPSLLPLRLLLLLLLLRGAVCQAEAGSETESPVRTLQVETLVEPPEPCAEPATFGDTLHIHYSGSL,24,8,11,
ENSBTAP00000044478,ENSBTAT00000047258,MGTSARWALWLLLLLCWAPRESGATGAGRKAKCEANQFQCTNGRCITLLWKCDGDEDCTDGSDEKNCVK,23,5,10,
ENSBTAP00000035211,ENSBTAT00000035335,MGPRLGVWLLLLLAALLLHEESSRAAAKGGCAGSGCGKCDCHGVKGQKGERGLPGLQGVIGFPGMQGPE,25,5,8,
ENSBTAP00000055273,ENSBTAT00000063699,MHSRAPLRLLLPLLLLLPALGPGVQGCPSGCQCNQPRTVFCTARRGTTVPLDVPPDTVGLYIFENGITT,26,5,12,
ENSBTAP00000042005,ENSBTAT00000044514,MGAAAWAPSLLPPRVSLLLLLLPLPGLPVGSWDPAGYLLYCPCMGRFGNQADHFLGSLAFAKLLNRTLA,31,6,16,
ENSBTAP00000025208,ENSBTAT00000025208,MAPAPSFHGHQWTYNLVRGSCLLLLLVMSNLLLCQGILCPSLCPDGDDVCRASLIDLFVHASVLSTGMY,36,5,21,
ENSBTAP00000040914,ENSBTAT00000043337,MALAWPGTRDPRPSAHLLLLLLLLHRAPVLALPAGTVPSETPGACASDPCAPGTKCQATENAGYSCVPL,31,8,16,
ENSBTAP00000026395,ENSBTAT00000026395,MLLQGALLLLLALPSHGEDNMEDPPLPKGACAGWMAGIPGHPGHNGTPGRDGRDGTPGEKGEKGDPGLV,17,5,6,
ENSBTAP00000048141,ENSBTAT00000053543,MHRRSRGVNIGLLLLLSQIFQVGINNVPPVTLATLALNIWFFLNPLKPLLSSCLSVEKCYYQKDWQRLL,21,5,11,
ENSBTAP00000011737,ENSBTAT00000011737,TEAARALGSLSEKMHHPPLPLLLLLLLCCRTQAGEIIGGTESKPHSRPYMAYLQIVTWHGKLAACGGFL,33,7,20,
ENSBTAP00000045276,ENSBTAT00000048190,MAPAPSFRGHQWTYNPVRGSCLLLLLVVSNLLLCQGISCPSCGPDMFVSLQKSLIDVFINAASLSHDFH,36,5,21,
ENSBTAP00000019526,ENSBTAT00000019526,MDPPAGAAGRLLCPALLLLLLLPLPADARLAAAAADPPGGPQGHGAERILAVPVRTDAQGRLVSHVVSA,28,7,15,
ENSBTAP00000004210,ENSBTAT00000004210,MKNLLLLLVFVTLSSAFPADQRMEDEENLQLTQAYLNQFYSLEIEGSHLAQSSNRSLIDGKIREMQAFF,16,5,3,
ENSBTAP00000020028,ENSBTAT00000020028,MELHPPLFQPFLLLLLLLPTLPAVPETGGSWQCPRIPYAASRDFAVEYSVPSFSPGGPVQAVATYEGGR,22,7,11,
ENSBTAP00000000202,ENSBTAT00000000202,MALQTAPPRLGSWGTPAHGSLLLLLLCLGWVLPSRAQAADVGLALLSSSVQRTSRDLSWQQPELTVLLP,38,6,20,
ENSBTAP00000001512,ENSBTAT00000001512,MRPPWCPLHTPSLTPPLLLLLFLLGGGAEAEGPEDPELLVMVRGGRLRGLRLMAPRGPVSAFLGIPFAE,30,5,16,
ENSBTAP00000051229,ENSBTAT00000054556,MHLAGFLLLLLAGRLVLSQGQLHPKHYGQGHAHLPRQAPGTGEGFSSLKINPGNTTFALHFHHLLASQA,18,5,6,
ENSBTAP00000049243,ENSBTAT00000054019,MASLLLLLLLLLLLPLLLLPLRIWSRLRWLAADLAFTMRALRCKRALRARALAAAAADPEGPEGGCSLA,20,11,3,
ENSBTAP00000036110,ENSBTAT00000036248,MRPGLSRRLLLAALLLLLVWTLFGPSGLGEELLSLSLASLLPGPASPGPPLALPRLLIPNEAACGAPGP,29,5,13,
ENSBTAP00000052086,ENSBTAT00000052512,TEAARALGSLSEKMHHPPLPLLLLLLLCCRTQAGEIIEGTESKPHSRPYMAYLQIVTWDGKQKACGGFL,33,7,20,
ENSBTAP00000006460,ENSBTAT00000006460,MPLLLLLLLLPSPSHPVPICEVGNKDSQVEVNCENKGLKAPPPDLPADTAILHLGENPLGTFSMASVLN,16,8,2,
ENSBTAP00000012110,ENSBTAT00000012110,MGARGAPSRRRQAGRRPRYLPTGSFPFLLLLLLLCIQLGGGQKKKENLLAEKVEQLMEWSSRRSVFRMN,41,7,27,
ENSBTAP00000013745,ENSBTAT00000013745,MPRAAPRWPPLLLLLLLLTLPPLARGAPARPGGRRPASALVVPKRLQSIAGEVALHLSAFGRDLELRLE,26,8,10,
ENSBTAP00000056241,ENSBTAT00000063471,MAKCLLLLLLVVLSSLLGLPQALECFQCNRVNASGVCETGGSTCQTQGSQQCFLRRIYENGTLSYGHQG,22,6,4,
ENSBTAP00000027416,ENSBTAT00000027416,MGVAGRGCPRAAPALLLLLLLLLLLLLTAAVPPYRGRAEGPPEDVDECAQGLDDCHINALCENTPTSYK,30,13,14,
ENSBTAP00000008184,ENSBTAT00000008184,MVPAEAMPRPGRPSGARLRLLLLLPPLLLLPGSYAGNLTVAVVLPLTNTSYPWSWARVGPAVELALARV,35,5,19,
ENSBTAP00000056469,ENSBTAT00000065609,MSRTAYTVGALLLLLGTLLPAAEGKKKGSQGAIPPPDKAQHNDSEQTQSPQQPGSRNRGRGQGRGTAMP,24,5,10,
ENSBTAP00000038266,ENSBTAT00000038453,MKIILDLLLLLLIIIYSYLESLVKVFIPRRRKSVAGEIVLITGAGHGIGRQTAYEFAKRKSRLVLWDIN,19,6,6,
ENSBTAP00000020127,ENSBTAT00000020127,MGRPSPAAVWIWMLLLLLLESQAGHVRAQENKVLEGKECKPHSQPWQTALFQGVRLICGGVLIEDNWVL,28,6,13,
ENSBTAP00000013427,ENSBTAT00000013427,MQGALTPLSSLPPPLLLLLLLGCGQRAAASGGAAGAAGYPPAQYVQPMHKGPVGPPFREGKGQYLEMPL,29,7,14,
ENSBTAP00000054183,ENSBTAT00000064928,MSVPAAGATRLLLLLLVAAATPSRARGSGCRSGAAVRGVGVEGREGEGCGTVGLLLEHSFEIDDSAHFR,27,6,10,
ENSBTAP00000025750,ENSBTAT00000025750,RAPAPSFCGLQWTYNPVRGSCLLLLLVVSNLLLCQGISCLSCRPDMFVSLQKSLIDVFINAASLSHDFH,36,5,21,
ENSBTAP00000041772,ENSBTAT00000044263,MTQLLLLLVALLVLGHVPTGRSEFKRCWNGQGACRAYCTKYEAYMHLCSDATLCCLPYGLKPVKTEKV*,22,5,3,
ENSBTAP00000051346,ENSBTAT00000052806,MSPLKRRASLSLLLLLGGCLLAAAGRKQGAAGVAAESASGSAGGSSGRFVSPERHTCSWQLLPPAPGPE,24,5,11,
ENSBTAP00000014865,ENSBTAT00000014865,YSGLGEGKPVQGLLRDQTGHLPPVQLLPQVDMGSGAWPLLVLNLLLLLLARPLRGQTETYCYGIPGMPG,55,6,43,
ENSBTAP00000010925,ENSBTAT00000010925,MLGGPGPGLLLLLAVLSLGTAVPSAGASKSRRQAQQIVQPQSPLTVSQSKPGCYDNGKHYQINQQWERT,27,5,8,
ENSBTAP00000003498,ENSBTAT00000003498,MRGARGAWDFLFVLLLLLLVQTGSSQPSVSPGELSLPSIHPAKSELIVSVGDEIRLLCTDPGFVKWTFE,25,6,13,
ENSBTAP00000015746,ENSBTAT00000015746,RRPGLGPPPLALLLLLLLSLGLLHAGDCQQPAQCRIQKCTTDFVSLTSHLNSAVDGFDSEFCKALRAYA,25,7,11,
ENSBTAP00000020853,ENSBTAT00000020853,MPPAFLLLLLLLLWLQGPVSGAPTEHVYSKLQHFEGETLSVQCSYKSRKNHLEGKVWCKIRRRKCETGF,21,8,5,
ENSBTAP00000000876,ENSBTAT00000000876,MLLLLLTLLLLLPLAMLLWRPQSRDARRSWLVRLQHCVTWGALRWAAAWQQKRLAQSTLHAGQSQQQAL,17,5,1,5,7,
ENSBTAP00000021014,ENSBTAT00000021014,MPRLPLLLLLLWGTGSHGFPAATSETQEQDVETVKKYLENYYNLNSNGKKVERQRNGGLITEKLKQMQK,18,6,5,
ENSBTAP00000054088,ENSBTAT00000064950,MGQWGFRLVALLLLLRHRQGAEACSTVGCCFQNPPYPDADSGSASGPRAPSCYRVFSSAGYECSWEYEG,23,5,10,
ENSBTAP00000011585,ENSBTAT00000011585,MGPHLLGRSSLLLLLLGMWWSVRPLCAVPKGLTKARWFEIQHIQPRLLQCNKAMSGVNNYTQHCKPENT,27,6,10,
ENSBTAP00000012101,ENSBTAT00000012101,MAAPAPAPRILVLLLLLLPAPEGAQSELCMISHGRKVDPWVCPDFCCGNCNDQYCCSDVLKQVMWIEED,26,6,12,
ENSBTAP00000052422,ENSBTAT00000057533,MKLSLVAAVLLLLLGTARAEEEDKKEDVGTVVGIDLGTTYSCVGVFKNGRVEIIANDQGNRITPSYVAF,19,5,9,
ENSBTAP00000021638,ENSBTAT00000021638,MASRLTPLTLLLLLLLAGDRVTSDMIVGPGNLQEGESEGDSQKGGILDGESIQGNEDSPTLPITNLTVV,23,7,9,
ENSBTAP00000004776,ENSBTAT00000004776,MEQIWLLLLLTTRVLPGSAQFNGYNCDANLHSRFPAERDINVYCGVQAITMKINFCTVLFSGYSEADLA,19,5,5,
ENSBTAP00000053945,ENSBTAT00000065720,MVVLAPAWSPTTSLLLLLLLLSPGLQGTPDCSFRHSPISSTFAIKIGKLSKYLLQDYPVTVASNLQDDK,27,8,13,
ENSBTAP00000043331,ENSBTAT00000045994,MARAATAAAPRLLRAAMLLLLLVAAGRRAAGAPVVNELRCHCLQTLQGIHLKNIQSVKVTPPGPHCGQT,31,5,17,
ENSBTAP00000031126,ENSBTAT00000031167,QRMRVMRPRTLLLLLSGVLVLTETLAGSHSLRYFYTGVSRPGLGEPRFIAVGYVDDTQFVRFDSDAADP,26,5,10,
ENSBTAP00000050173,ENSBTAT00000056323,MPGSVARLLPRLRPSGTSPLFLLLLLALLRGPVCGRVPHSVPRTSLPISEADSYLTRFTIPQTYNYSVL,35,5,21,
ENSBTAP00000043940,ENSBTAT00000046664,MKLTLVQIFFMMLLLLLGLGVGLGVGLQMAAAVLEESDQLLDEFLSSDSQDKAEATKEGLASRSTETLL,26,5,12,
ENSBTAP00000007856,ENSBTAT00000007856,MLAPGRGPRGPPLTMPGRRGALREPAGCGSGLGAALALLLLLLPAGCPVRAQNDTEPIVLEGKCLVVCD,51,6,37,
ENSBTAP00000055491,ENSBTAT00000063324,MQRQGSTMLLLLLLPALLALLLGAATAAPLAPRPSKEELTRCLAEVVTEVLTLGQVRRGPCLALLHREM,27,6,8,
ENSBTAP00000033956,ENSBTAT00000034054,MIPAVVLLLLLLVEQAAALGEPQLCYILDAILFLYGIVLTLLYCRLKLQVRKAATASEKSDGIYTGLST,18,6,6,
ENSBTAP00000013619,ENSBTAT00000013619,MGSVLLVLLLLLLSPSYPRGGSARRRRGARTQSPGGSSHPQFWVRLSPDFKAVPLGGSVWLNCSSSCPL,23,6,7,
ENSBTAP00000004926,ENSBTAT00000004926,MPPIQPHYPHLFLLLLLACQPETPSAQVMDFLFEKWKLYGDQCLHNLSLLPLPTELVCNRTFDKYSCWP,25,5,12,
ENSBTAP00000004340,ENSBTAT00000004340,TAPTPALSNRERKGFPPQTGSCLLLLLLMSNLLLCQGNSCPSCSPDVFVSLRKSLTDLFINAASLSHDF,37,6,22,
ENSBTAP00000055134,ENSBTAT00000065205,MWFLPAALPLLPLLLLLGQAPPSRPQSLGTMKLRLVGPGSGPEEGRLEVLHQGQWGTVCDDDFALQEAT,25,5,12,
ENSBTAP00000016194,ENSBTAT00000016194,QTRRIRVMGPRTLLLLLSEVLVLTETWAGSHSLSYFCTCVSRPGLGEPRFFAVGYVDDTQFARFDSDAP,28,5,12,
ENSBTAP00000002020,ENSBTAT00000002020,MGARASGGPRARTGFLLLLLLLGLVAPGAQGARSRGGTEKNSYRRTVNTFSQSVSSLFGEDNVRAAQKF,31,7,15,
ENSBTAP00000021686,ENSBTAT00000021686,MRPLPGAPGVAAAAALLLLLLPRARADEHEHTYQDKEEVVLWMNTVGPYHNRQETYKYFSLPFCVGSKK,26,6,15,
ENSBTAP00000018052,ENSBTAT00000018052,MAAAGGPAAAGRCALSSLLLLLLVVGTAQCWDERDRILLRDIKALTLYYDRYTTSRRLEPIPQLKCVGG,30,6,17,
ENSBTAP00000011679,ENSBTAT00000011679,LRSLLLLLLPLCPGPGPGPGIEAKVTRSCTETRQILGARGYSLSVLPPALISGEHLRICPQEYTCCSSE,20,6,3,
ENSBTAP00000045299,ENSBTAT00000048220,MAPAPSFRGHQWTYNPIRGSCLLLLLVVSNLVLCQGKSCLSCSPDVFVSLQKSLTDVFVYALSLSHDIH,36,5,21,
ENSBTAP00000037841,ENSBTAT00000038022,MWRRPLGLLLLLLLLLAGELGVGARRGRRRRELAPALHRRGIRDAGGRYCQEQDLCCRGRADDCALPYL,24,9,7,
ENSBTAP00000017670,ENSBTAT00000017670,MAAARLARGPELLLLGLLLLLGGPGRGAALSGNATRPGPWSAGGSARRSAAVTGPPPLLSHCGRAAPCE,29,5,16,
